\relax 
\@writefile{toc}{\contentsline {section}{\numberline {1}Memulai dengan Oracle SQL Developer Data Modeler}{1}\protected@file@percent }
\@writefile{toc}{\contentsline {subsection}{\numberline {1.1}Key Concepts}{1}\protected@file@percent }
\@writefile{toc}{\contentsline {paragraph}{Kesulitan}{1}\protected@file@percent }
\@writefile{toc}{\contentsline {paragraph}{Durasi}{1}\protected@file@percent }
\@writefile{toc}{\contentsline {paragraph}{Catatan}{2}\protected@file@percent }
\@writefile{toc}{\contentsline {section}{\numberline {2}Mengunduh Oracle SQL Developer Data Modeler}{2}\protected@file@percent }
\@writefile{toc}{\contentsline {section}{\numberline {3}Buka Oracle SQL Developer Data Modeler}{2}\protected@file@percent }
\@writefile{lof}{\contentsline {figure}{\numberline {1}{\ignorespaces Oracle SQL Developer Data Modeler}}{3}\protected@file@percent }
\@writefile{lof}{\contentsline {figure}{\numberline {2}{\ignorespaces Entitas Fast Food}}{3}\protected@file@percent }
\@writefile{lof}{\contentsline {figure}{\numberline {3}{\ignorespaces Oracle SQL Developer Data Modeler}}{4}\protected@file@percent }
\@writefile{lof}{\contentsline {figure}{\numberline {4}{\ignorespaces Oracle SQL Developer Data Modeler}}{5}\protected@file@percent }
\@writefile{lof}{\contentsline {figure}{\numberline {5}{\ignorespaces Oracle SQL Developer Data Modeler}}{6}\protected@file@percent }
\@writefile{lof}{\contentsline {figure}{\numberline {6}{\ignorespaces Oracle SQL Developer Data Modeler}}{7}\protected@file@percent }
\@writefile{lof}{\contentsline {figure}{\numberline {7}{\ignorespaces Oracle SQL Developer Data Modeler}}{7}\protected@file@percent }
\@writefile{lof}{\contentsline {figure}{\numberline {8}{\ignorespaces Oracle SQL Developer Data Modeler}}{8}\protected@file@percent }
\@writefile{lof}{\contentsline {figure}{\numberline {9}{\ignorespaces Oracle SQL Developer Data Modeler}}{9}\protected@file@percent }
